0
SECTION
2
HEADER
9
$INSUNITS
70
1
9
$ACADVER
1
AC1014
9
$HANDSEED
5
FFFF
0
ENDSEC
0
SECTION
2
TABLES
0
TABLE
2
VPORT
5
8
100
AcDbSymbolTable
0
ENDTAB
0
TABLE
2
LTYPE
5
5
100
AcDbSymbolTable
0
LTYPE
5
14
100
AcDbSymbolTableRecord
100
AcDbLinetypeTableRecord
2
BYBLOCK
70
0
0
LTYPE
5
15
100
AcDbSymbolTableRecord
100
AcDbLinetypeTableRecord
2
BYLAYER
70
0
0
ENDTAB
0
TABLE
2
LAYER
5
2
100
AcDbSymbolTable
70
2
0
LAYER
5
50
100
AcDbSymbolTableRecord
100
AcDbLayerTableRecord
2
0
70
0
6
CONTINUOUS
0
ENDTAB
0
TABLE
2
STYLE
5
3
100
AcDbSymbolTable
70
1
0
STYLE
5
11
100
AcDbSymbolTableRecord
100
AcDbTextStyleTableRecord
2
STANDARD
70
0
0
ENDTAB
0
TABLE
2
VIEW
5
6
100
AcDbSymbolTable
70
0
0
ENDTAB
0
TABLE
2
UCS
5
7
100
AcDbSymbolTable
70
0
0
ENDTAB
0
TABLE
2
APPID
5
9
100
AcDbSymbolTable
70
2
0
APPID
5
12
100
AcDbSymbolTableRecord
100
AcDbRegAppTableRecord
2
ACAD
70
0
0
ENDTAB
0
TABLE
2
DIMSTYLE
5
A
100
AcDbSymbolTable
70
1
0
ENDTAB
0
TABLE
2
BLOCK_RECORD
5
1
100
AcDbSymbolTable
70
1
0
BLOCK_RECORD
5
1F
100
AcDbSymbolTableRecord
100
AcDbBlockTableRecord
2
*MODEL_SPACE
0
BLOCK_RECORD
5
1B
100
AcDbSymbolTableRecord
100
AcDbBlockTableRecord
2
*PAPER_SPACE
0
ENDTAB
0
ENDSEC
0
SECTION
2
BLOCKS
0
BLOCK
5
20
100
AcDbEntity
100
AcDbBlockBegin
2
*MODEL_SPACE
0
ENDBLK
5
21
100
AcDbEntity
100
AcDbBlockEnd
0
BLOCK
5
1C
100
AcDbEntity
100
AcDbBlockBegin
2
*PAPER_SPACE
0
ENDBLK
5
1D
100
AcDbEntity
100
AcDbBlockEnd
0
ENDSEC
0
SECTION
2
ENTITIES
0
CIRCLE
5
100
100
AcDbEntity
8
0
100
AcDbCircle
10
10.125000000000002
20
0.50000000000000455
30
0
40
0.078125000000000014
0
CIRCLE
5
101
100
AcDbEntity
8
0
100
AcDbCircle
10
9.5
20
0.50000000000000366
30
0
40
0.078124999999999917
0
ARC
5
102
100
AcDbEntity
8
0
100
AcDbCircle
10
0.88682468035705109
20
0.25000000000000083
30
0
40
0.25000000000000061
100
AcDbArc
50
210
51
270.00000000000006
0
LINE
5
103
100
AcDbEntity
8
0
100
AcDbLine
10
0.88682468035705131
20
1.7483827159451283e-16
30
0
11
1.0268504542377641
21
0
31
0
0
ARC
5
104
100
AcDbEntity
8
0
100
AcDbCircle
10
1.0268504542377641
20
0.25000000000000022
30
0
40
0.25000000000000022
100
AcDbArc
50
270
51
324.99999999999994
0
LINE
5
105
100
AcDbEntity
8
0
100
AcDbLine
10
1.3229905877848109
20
0.23707024253628364
30
0
11
1.3876943724812809
21
0.12499999999999982
31
0
0
ARC
5
106
100
AcDbEntity
8
0
100
AcDbCircle
10
1.6042007234273903
20
0.24999999999999967
30
0
40
0.24999999999999967
100
AcDbArc
50
209.99999999999997
51
269.99999999999989
0
LINE
5
107
100
AcDbEntity
8
0
100
AcDbLine
10
1.6042007234273898
20
-1.0927391974657052e-17
30
0
11
9.0207992765726086
21
0
31
0
0
ARC
5
108
100
AcDbEntity
8
0
100
AcDbCircle
10
9.0207992765726086
20
0.25000000000000311
30
0
40
0.25000000000000311
100
AcDbArc
50
270
51
329.9999999999996
0
LINE
5
109
100
AcDbEntity
8
0
100
AcDbLine
10
9.2373056275187206
20
0.12499999999999986
30
0
11
9.3020094122151882
21
0.23707024253628364
31
0
0
ARC
5
110
100
AcDbEntity
8
0
100
AcDbCircle
10
9.5981495457622348
20
0.25000000000000022
30
0
40
0.25000000000000044
100
AcDbArc
50
215.00000000000003
51
270
0
LINE
5
111
100
AcDbEntity
8
0
100
AcDbLine
10
9.5981495457622348
20
1.3112870369588462e-16
30
0
11
9.7381753196429486
21
0
31
0
0
ARC
5
112
100
AcDbEntity
8
0
100
AcDbCircle
10
9.7381753196429504
20
0.24999999999999781
30
0
40
0.24999999999999781
100
AcDbArc
50
269.9999999999996
51
330.00000000000034
0
LINE
5
113
100
AcDbEntity
8
0
100
AcDbLine
10
9.9546816705890588
20
0.12500000000000025
30
0
11
10.019385455285528
21
0.23707024253628306
31
0
0
ARC
5
114
100
AcDbEntity
8
0
100
AcDbCircle
10
10.315525588832575
20
0.24999999999999994
30
0
40
0.2499999999999992
100
AcDbArc
50
215
51
344.62222138876876
0
LINE
5
115
100
AcDbEntity
8
0
100
AcDbLine
10
10.556575169845448
20
0.18370445344129432
30
0
11
10.607099162025749
21
0.36740890688258826
31
0
0
ARC
5
116
100
AcDbEntity
8
0
100
AcDbCircle
10
10.125
20
0.50000000000000044
30
0
40
0.50000000000000078
100
AcDbArc
50
-15.377778611231291
51
90
0
LINE
5
117
100
AcDbEntity
8
0
100
AcDbLine
10
10.125
20
0.99999999999999989
30
0
11
0.49999999999999978
21
0.99999999999999989
31
0
0
ARC
5
118
100
AcDbEntity
8
0
100
AcDbCircle
10
0.49999999999999978
20
0.49999999999999994
30
0
40
0.49999999999999994
100
AcDbArc
50
90
51
195.37777861123124
0
LINE
5
119
100
AcDbEntity
8
0
100
AcDbLine
10
0.017900837974250381
20
0.36740890688258837
30
0
11
0.068424830154549851
21
0.18370445344129416
31
0
0
ARC
5
120
100
AcDbEntity
8
0
100
AcDbCircle
10
0.30947441116742486
20
0.24999999999999994
30
0
40
0.25000000000000022
100
AcDbArc
50
195.37777861123124
51
325
0
LINE
5
121
100
AcDbEntity
8
0
100
AcDbLine
10
0.60561454471447118
20
0.23707024253628306
30
0
11
0.67031832941094094
21
0.12500000000000042
31
0
0
CIRCLE
5
122
100
AcDbEntity
8
0
100
AcDbCircle
10
1.1249999999999989
20
0.50000000000000366
30
0
40
0.078124999999999917
0
CIRCLE
5
123
100
AcDbEntity
8
0
100
AcDbCircle
10
0.49999999999999867
20
0.50000000000000455
30
0
40
0.078125000000000014
0
LINE
5
124
100
AcDbEntity
8
0
100
AcDbLine
10
10.019385455285528
20
0.23707024253628306
30
0
11
10.126086897086051
21
0.42188256097564597
31
0
0
LINE
5
125
100
AcDbEntity
8
0
100
AcDbLine
10
9.3020094122151882
20
0.23707024253628364
30
0
11
9.4318048647832988
21
0.46188256097564495
31
0
0
LINE
5
126
100
AcDbEntity
8
0
100
AcDbLine
10
10.019385455285528
20
0.23707024253628306
30
0
11
10.110737577760327
21
0.10660589091223843
31
0
0
LINE
5
127
100
AcDbEntity
8
0
100
AcDbLine
10
0.51426242223967278
20
0.10660589091223843
30
0
11
0.60561454471447118
21
0.23707024253628306
31
0
0
LINE
5
128
100
AcDbEntity
8
0
100
AcDbLine
10
1.2316384653100121
20
0.1066058909122385
30
0
11
1.3229905877848109
21
0.23707024253628364
31
0
0
LINE
5
129
100
AcDbEntity
8
0
100
AcDbLine
10
9.3020094122151882
20
0.23707024253628364
30
0
11
9.393361534689987
21
0.1066058909122385
31
0
0
LINE
5
130
100
AcDbEntity
8
0
100
AcDbLine
10
0.60561454471447118
20
0.23707024253628306
30
0
11
0.49891310291394558
21
0.42188256097564614
31
0
0
LINE
5
131
100
AcDbEntity
8
0
100
AcDbLine
10
1.3229905877848109
20
0.23707024253628364
30
0
11
1.1931951352167014
21
0.46188256097564567
31
0
0
ENDSEC
0
SECTION
2
OBJECTS
0
DICTIONARY
5
C
100
AcDbDictionary
3
ACAD_GROUP
350
D
3
ACAD_MLINESTYLE
350
17
0
DICTIONARY
5
D
100
AcDbDictionary
0
DICTIONARY
5
1A
330
C
100
AcDbDictionary
0
DICTIONARY
5
17
100
AcDbDictionary
0
ENDSEC
0
EOF
